each different range maate ... 1 j hase ...
  master meter 
  callibrationDate
  nextYearDate
  Accuracy
  ... right ?

=============================================================
*  Do you want alert for duplicate of grn no.......

*  Query : User type required ?
  admin can create user